{"content":[{"id":"39ca3e6d-17dc-426c-bd8e-b5e1dc75d8fc","customerNumber":"TEST_CUST_002","companyName":"BioFresh Märkte AG","tradingName":null,"legalForm":null,"customerType":"UNTERNEHMEN","industry":"EINZELHANDEL","classification":null,"parentCustomerId":null,"hierarchyType":null,"childCustomerIds":[],"hasChildren":false,"status":"AKTIV","lifecycleStage":null,"partnerStatus":null,"expectedAnnualVolume":null,"actualAnnualVolume":null,"paymentTerms":null,"creditLimit":null,"deliveryCondition":null,"riskScore":0,"atRisk":false,"lastContactDate":null,"nextFollowUpDate":null,"totalLocationsEU":null,"locationsGermany":null,"locationsAustria":null,"locationsSwitzerland":null,"locationsRestEU":null,"expansionPlanned":null,"primaryFinancing":null,"painPoints":[],"contactsCount":15,"createdAt":"2025-08-15T21:23:13.475749","createdBy":null,"updatedAt":null,"updatedBy":null,"isDeleted":false,"deletedAt":null,"deletedBy":null},{"id":"49c24d4c-ece2-4ed9-adba-13bb10f7e0a7","customerNumber":"TEST_CUST_012","companyName":"Bäckerei Goldkorn GmbH","tradingName":null,"legalForm":null,"customerType":"UNTERNEHMEN","industry":"SONSTIGE","classification":null,"parentCustomerId":null,"hierarchyType":null,"childCustomerIds":[],"hasChildren":false,"status":"AKTIV","lifecycleStage":null,"partnerStatus":null,"expectedAnnualVolume":null,"actualAnnualVolume":null,"paymentTerms":null,"creditLimit":null,"deliveryCondition":null,"riskScore":0,"atRisk":false,"lastContactDate":null,"nextFollowUpDate":null,"totalLocationsEU":null,"locationsGermany":null,"locationsAustria":null,"locationsSwitzerland":null,"locationsRestEU":null,"expansionPlanned":null,"primaryFinancing":null,"painPoints":[],"contactsCount":10,"createdAt":"2025-08-15T21:23:13.482257","createdBy":null,"updatedAt":null,"updatedBy":null,"isDeleted":false,"deletedAt":null,"deletedBy":null},{"id":"3e17bc73-55bf-4f06-904d-ab2537b6d1fc","customerNumber":"KD-2025-00090","companyName":"CQRS Test Company GmbH","tradingName":null,"legalForm":null,"customerType":"NEUKUNDE","industry":"SONSTIGE","classification":null,"parentCustomerId":null,"hierarchyType":null,"childCustomerIds":[],"hasChildren":false,"status":"LEAD","lifecycleStage":null,"partnerStatus":null,"expectedAnnualVolume":100000.00,"actualAnnualVolume":null,"paymentTerms":null,"creditLimit":null,"deliveryCondition":null,"riskScore":80,"atRisk":false,"lastContactDate":null,"nextFollowUpDate":null,"totalLocationsEU":null,"locationsGermany":null,"locationsAustria":null,"locationsSwitzerland":null,"locationsRestEU":null,"expansionPlanned":null,"primaryFinancing":null,"painPoints":[],"contactsCount":0,"createdAt":"2025-08-15T21:18:25.684313","createdBy":null,"updatedAt":null,"updatedBy":null,"isDeleted":false,"deletedAt":null,"deletedBy":null},{"id":"1c91c0f7-eb12-414d-9284-3ddfa40aca63","customerNumber":"KD-2025-00089","companyName":"CQRS Test Company GmbH","tradingName":null,"legalForm":null,"customerType":"NEUKUNDE","industry":"SONSTIGE","classification":null,"parentCustomerId":null,"hierarchyType":null,"childCustomerIds":[],"hasChildren":false,"status":"LEAD","lifecycleStage":null,"partnerStatus":null,"expectedAnnualVolume":100000.00,"actualAnnualVolume":null,"paymentTerms":null,"creditLimit":null,"deliveryCondition":null,"riskScore":80,"atRisk":false,"lastContactDate":null,"nextFollowUpDate":null,"totalLocationsEU":null,"locationsGermany":null,"locationsAustria":null,"locationsSwitzerland":null,"locationsRestEU":null,"expansionPlanned":null,"primaryFinancing":null,"painPoints":[],"contactsCount":0,"createdAt":"2025-08-15T20:13:22.189929","createdBy":null,"updatedAt":null,"updatedBy":null,"isDeleted":false,"deletedAt":null,"deletedBy":null},{"id":"03848147-0fb9-433b-8927-0639a73a597e","customerNumber":"KD-2025-00091","companyName":"CQRS Test Company_1755286018270_77ad18d0","tradingName":null,"legalForm":null,"customerType":"NEUKUNDE","industry":"SONSTIGE","classification":null,"parentCustomerId":null,"hierarchyType":null,"childCustomerIds":[],"hasChildren":false,"status":"LEAD","lifecycleStage":null,"partnerStatus":null,"expectedAnnualVolume":100000.00,"actualAnnualVolume":null,"paymentTerms":null,"creditLimit":null,"deliveryCondition":null,"riskScore":80,"atRisk":false,"lastContactDate":null,"nextFollowUpDate":null,"totalLocationsEU":null,"locationsGermany":null,"locationsAustria":null,"locationsSwitzerland":null,"locationsRestEU":null,"expansionPlanned":null,"primaryFinancing":null,"painPoints":[],"contactsCount":0,"createdAt":"2025-08-15T21:26:58.275447","createdBy":null,"updatedAt":null,"updatedBy":null,"isDeleted":false,"deletedAt":null,"deletedBy":null},{"id":"8dbb6e54-a348-4078-bbfe-713a8049fbc0","customerNumber":"KD-2025-00092","companyName":"CQRS Test Company_1755286064425_d963f066","tradingName":null,"legalForm":null,"customerType":"NEUKUNDE","industry":"SONSTIGE","classification":null,"parentCustomerId":null,"hierarchyType":null,"childCustomerIds":[],"hasChildren":false,"status":"LEAD","lifecycleStage":null,"partnerStatus":null,"expectedAnnualVolume":100000.00,"actualAnnualVolume":null,"paymentTerms":null,"creditLimit":null,"deliveryCondition":null,"riskScore":80,"atRisk":false,"lastContactDate":null,"nextFollowUpDate":null,"totalLocationsEU":null,"locationsGermany":null,"locationsAustria":null,"locationsSwitzerland":null,"locationsRestEU":null,"expansionPlanned":null,"primaryFinancing":null,"painPoints":[],"contactsCount":0,"createdAt":"2025-08-15T21:27:44.430766","createdBy":null,"updatedAt":null,"updatedBy":null,"isDeleted":false,"deletedAt":null,"deletedBy":null},{"id":"47d1230a-3aca-4014-8fb2-ecf9223e143a","customerNumber":"KD-2025-00093","companyName":"CQRS Test Company_1755287427290_4a69ce24","tradingName":null,"legalForm":null,"customerType":"NEUKUNDE","industry":"SONSTIGE","classification":null,"parentCustomerId":null,"hierarchyType":null,"childCustomerIds":[],"hasChildren":false,"status":"LEAD","lifecycleStage":null,"partnerStatus":null,"expectedAnnualVolume":100000.00,"actualAnnualVolume":null,"paymentTerms":null,"creditLimit":null,"deliveryCondition":null,"riskScore":80,"atRisk":false,"lastContactDate":null,"nextFollowUpDate":null,"totalLocationsEU":null,"locationsGermany":null,"locationsAustria":null,"locationsSwitzerland":null,"locationsRestEU":null,"expansionPlanned":null,"primaryFinancing":null,"painPoints":[],"contactsCount":0,"createdAt":"2025-08-15T21:50:27.2961","createdBy":null,"updatedAt":null,"updatedBy":null,"isDeleted":false,"deletedAt":null,"deletedBy":null},{"id":"05a326fe-a83a-4ccc-890b-057de9078493","customerNumber":"TEST_CUST_021","companyName":"Café Einstein","tradingName":null,"legalForm":null,"customerType":"PRIVAT","industry":"RESTAURANT","classification":null,"parentCustomerId":null,"hierarchyType":null,"childCustomerIds":[],"hasChildren":false,"status":"AKTIV","lifecycleStage":null,"partnerStatus":null,"expectedAnnualVolume":null,"actualAnnualVolume":null,"paymentTerms":null,"creditLimit":null,"deliveryCondition":null,"riskScore":0,"atRisk":false,"lastContactDate":null,"nextFollowUpDate":null,"totalLocationsEU":null,"locationsGermany":null,"locationsAustria":null,"locationsSwitzerland":null,"locationsRestEU":null,"expansionPlanned":null,"primaryFinancing":null,"painPoints":[],"contactsCount":5,"createdAt":"2025-08-15T21:23:13.485708","createdBy":null,"updatedAt":null,"updatedBy":null,"isDeleted":false,"deletedAt":null,"deletedBy":null},{"id":"e3fb62e6-e83e-482b-bb00-8c03f5daf7fd","customerNumber":"TEST_CUST_022","companyName":"Café Zur Linde","tradingName":null,"legalForm":null,"customerType":"PRIVAT","industry":"RESTAURANT","classification":null,"parentCustomerId":null,"hierarchyType":null,"childCustomerIds":[],"hasChildren":false,"status":"AKTIV","lifecycleStage":null,"partnerStatus":null,"expectedAnnualVolume":null,"actualAnnualVolume":null,"paymentTerms":null,"creditLimit":null,"deliveryCondition":null,"riskScore":0,"atRisk":false,"lastContactDate":null,"nextFollowUpDate":null,"totalLocationsEU":null,"locationsGermany":null,"locationsAustria":null,"locationsSwitzerland":null,"locationsRestEU":null,"expansionPlanned":null,"primaryFinancing":null,"painPoints":[],"contactsCount":5,"createdAt":"2025-08-15T21:23:13.489102","createdBy":null,"updatedAt":null,"updatedBy":null,"isDeleted":false,"deletedAt":null,"deletedBy":null},{"id":"af40589b-befb-4ed5-91e0-4d4e6bb716f3","customerNumber":"TEST_CUST_041","companyName":"Expansion Restaurants AG","tradingName":null,"legalForm":null,"customerType":"UNTERNEHMEN","industry":"RESTAURANT","classification":null,"parentCustomerId":null,"hierarchyType":null,"childCustomerIds":[],"hasChildren":false,"status":"AKTIV","lifecycleStage":null,"partnerStatus":null,"expectedAnnualVolume":null,"actualAnnualVolume":null,"paymentTerms":null,"creditLimit":null,"deliveryCondition":null,"riskScore":0,"atRisk":false,"lastContactDate":null,"nextFollowUpDate":null,"totalLocationsEU":null,"locationsGermany":null,"locationsAustria":null,"locationsSwitzerland":null,"locationsRestEU":null,"expansionPlanned":null,"primaryFinancing":null,"painPoints":[],"contactsCount":10,"createdAt":"2025-08-15T21:23:13.500292","createdBy":null,"updatedAt":null,"updatedBy":null,"isDeleted":false,"deletedAt":null,"deletedBy":null},{"id":"a8956eb6-73ee-4eca-908b-3f654099914a","customerNumber":"TEST_CUST_023","companyName":"Gasthof Adler","tradingName":null,"legalForm":null,"customerType":"PRIVAT","industry":"RESTAURANT","classification":null,"parentCustomerId":null,"hierarchyType":null,"childCustomerIds":[],"hasChildren":false,"status":"AKTIV","lifecycleStage":null,"partnerStatus":null,"expectedAnnualVolume":null,"actualAnnualVolume":null,"paymentTerms":null,"creditLimit":null,"deliveryCondition":null,"riskScore":0,"atRisk":false,"lastContactDate":null,"nextFollowUpDate":null,"totalLocationsEU":null,"locationsGermany":null,"locationsAustria":null,"locationsSwitzerland":null,"locationsRestEU":null,"expansionPlanned":null,"primaryFinancing":null,"painPoints":[],"contactsCount":5,"createdAt":"2025-08-15T21:23:13.491156","createdBy":null,"updatedAt":null,"updatedBy":null,"isDeleted":false,"deletedAt":null,"deletedBy":null},{"id":"32023664-1a8e-497f-892d-66df0419849f","customerNumber":"TEST_CUST_011","companyName":"Hotel Zur Post GmbH & Co. KG","tradingName":null,"legalForm":null,"customerType":"UNTERNEHMEN","industry":"HOTEL","classification":null,"parentCustomerId":null,"hierarchyType":null,"childCustomerIds":[],"hasChildren":false,"status":"AKTIV","lifecycleStage":null,"partnerStatus":null,"expectedAnnualVolume":null,"actualAnnualVolume":null,"paymentTerms":null,"creditLimit":null,"deliveryCondition":null,"riskScore":0,"atRisk":false,"lastContactDate":null,"nextFollowUpDate":null,"totalLocationsEU":null,"locationsGermany":null,"locationsAustria":null,"locationsSwitzerland":null,"locationsRestEU":null,"expansionPlanned":null,"primaryFinancing":null,"painPoints":[],"contactsCount":15,"createdAt":"2025-08-15T21:23:13.479466","createdBy":null,"updatedAt":null,"updatedBy":null,"isDeleted":false,"deletedAt":null,"deletedBy":null},{"id":"aab0eb4f-7935-48de-9940-eadc4a501bb8","customerNumber":"TEST_CUST_001","companyName":"Müller Gastro Gruppe GmbH","tradingName":null,"legalForm":null,"customerType":"UNTERNEHMEN","industry":"RESTAURANT","classification":null,"parentCustomerId":null,"hierarchyType":null,"childCustomerIds":[],"hasChildren":false,"status":"AKTIV","lifecycleStage":null,"partnerStatus":null,"expectedAnnualVolume":null,"actualAnnualVolume":null,"paymentTerms":null,"creditLimit":null,"deliveryCondition":null,"riskScore":0,"atRisk":false,"lastContactDate":null,"nextFollowUpDate":null,"totalLocationsEU":null,"locationsGermany":null,"locationsAustria":null,"locationsSwitzerland":null,"locationsRestEU":null,"expansionPlanned":null,"primaryFinancing":null,"painPoints":[],"contactsCount":40,"createdAt":"2025-08-15T21:23:13.464466","createdBy":null,"updatedAt":null,"updatedBy":null,"isDeleted":false,"deletedAt":null,"deletedBy":null},{"id":"a6ce5adc-8534-4cea-9b09-c109dfb5ed83","customerNumber":"TEST_CUST_024","companyName":"Pizzeria Krone","tradingName":null,"legalForm":null,"customerType":"PRIVAT","industry":"RESTAURANT","classification":null,"parentCustomerId":null,"hierarchyType":null,"childCustomerIds":[],"hasChildren":false,"status":"AKTIV","lifecycleStage":null,"partnerStatus":null,"expectedAnnualVolume":null,"actualAnnualVolume":null,"paymentTerms":null,"creditLimit":null,"deliveryCondition":null,"riskScore":0,"atRisk":false,"lastContactDate":null,"nextFollowUpDate":null,"totalLocationsEU":null,"locationsGermany":null,"locationsAustria":null,"locationsSwitzerland":null,"locationsRestEU":null,"expansionPlanned":null,"primaryFinancing":null,"painPoints":[],"contactsCount":5,"createdAt":"2025-08-15T21:23:13.493176","createdBy":null,"updatedAt":null,"updatedBy":null,"isDeleted":false,"deletedAt":null,"deletedBy":null},{"id":"1d639b1f-fac1-4ea5-abe9-ab22ceaf758d","customerNumber":"TEST_CUST_025","companyName":"Restaurant Goldener Löwe","tradingName":null,"legalForm":null,"customerType":"PRIVAT","industry":"RESTAURANT","classification":null,"parentCustomerId":null,"hierarchyType":null,"childCustomerIds":[],"hasChildren":false,"status":"AKTIV","lifecycleStage":null,"partnerStatus":null,"expectedAnnualVolume":null,"actualAnnualVolume":null,"paymentTerms":null,"creditLimit":null,"deliveryCondition":null,"riskScore":0,"atRisk":false,"lastContactDate":null,"nextFollowUpDate":null,"totalLocationsEU":null,"locationsGermany":null,"locationsAustria":null,"locationsSwitzerland":null,"locationsRestEU":null,"expansionPlanned":null,"primaryFinancing":null,"painPoints":[],"contactsCount":5,"createdAt":"2025-08-15T21:23:13.495156","createdBy":null,"updatedAt":null,"updatedBy":null,"isDeleted":false,"deletedAt":null,"deletedBy":null},{"id":"1ead0038-8938-4d18-90a5-7e316bf917b4","customerNumber":"TEST_CUST_031","companyName":"Schwierig & Partner GbR","tradingName":null,"legalForm":null,"customerType":"UNTERNEHMEN","industry":"CATERING","classification":null,"parentCustomerId":null,"hierarchyType":null,"childCustomerIds":[],"hasChildren":false,"status":"AKTIV","lifecycleStage":null,"partnerStatus":null,"expectedAnnualVolume":null,"actualAnnualVolume":null,"paymentTerms":null,"creditLimit":null,"deliveryCondition":null,"riskScore":0,"atRisk":false,"lastContactDate":null,"nextFollowUpDate":null,"totalLocationsEU":null,"locationsGermany":null,"locationsAustria":null,"locationsSwitzerland":null,"locationsRestEU":null,"expansionPlanned":null,"primaryFinancing":null,"painPoints":[],"contactsCount":10,"createdAt":"2025-08-15T21:23:13.497342","createdBy":null,"updatedAt":null,"updatedBy":null,"isDeleted":false,"deletedAt":null,"deletedBy":null},{"id":"6710da18-e1ed-42ba-914d-8cb11c0e646a","customerNumber":"PA275d7","companyName":"[TEST-275d74af] Priority Active","tradingName":null,"legalForm":null,"customerType":"UNTERNEHMEN","industry":"HOTEL","classification":null,"parentCustomerId":null,"hierarchyType":null,"childCustomerIds":[],"hasChildren":false,"status":"AKTIV","lifecycleStage":null,"partnerStatus":null,"expectedAnnualVolume":null,"actualAnnualVolume":null,"paymentTerms":null,"creditLimit":null,"deliveryCondition":null,"riskScore":0,"atRisk":false,"lastContactDate":"2025-08-10T22:31:25.208289","nextFollowUpDate":null,"totalLocationsEU":null,"locationsGermany":null,"locationsAustria":null,"locationsSwitzerland":null,"locationsRestEU":null,"expansionPlanned":null,"primaryFinancing":null,"painPoints":[],"contactsCount":0,"createdAt":"2025-08-15T22:31:25.208427","createdBy":null,"updatedAt":null,"updatedBy":null,"isDeleted":false,"deletedAt":null,"deletedBy":null},{"id":"bccdf605-8e06-40e3-b7f7-b450dce2efc9","customerNumber":"PI275d7","companyName":"[TEST-275d74af] Priority Inactive","tradingName":null,"legalForm":null,"customerType":"UNTERNEHMEN","industry":"HOTEL","classification":null,"parentCustomerId":null,"hierarchyType":null,"childCustomerIds":[],"hasChildren":false,"status":"INAKTIV","lifecycleStage":null,"partnerStatus":null,"expectedAnnualVolume":null,"actualAnnualVolume":null,"paymentTerms":null,"creditLimit":null,"deliveryCondition":null,"riskScore":0,"atRisk":false,"lastContactDate":null,"nextFollowUpDate":null,"totalLocationsEU":null,"locationsGermany":null,"locationsAustria":null,"locationsSwitzerland":null,"locationsRestEU":null,"expansionPlanned":null,"primaryFinancing":null,"painPoints":[],"contactsCount":0,"createdAt":"2025-08-15T22:31:25.208818","createdBy":null,"updatedAt":null,"updatedBy":null,"isDeleted":false,"deletedAt":null,"deletedBy":null},{"id":"a90de86b-5231-4a14-aa7e-57ae738aa11f","customerNumber":"ACT3dd0","companyName":"[TEST-3dd001d3] Active Restaurant","tradingName":null,"legalForm":null,"customerType":"UNTERNEHMEN","industry":"RESTAURANT","classification":null,"parentCustomerId":null,"hierarchyType":null,"childCustomerIds":[],"hasChildren":false,"status":"AKTIV","lifecycleStage":null,"partnerStatus":null,"expectedAnnualVolume":null,"actualAnnualVolume":null,"paymentTerms":null,"creditLimit":null,"deliveryCondition":null,"riskScore":0,"atRisk":false,"lastContactDate":null,"nextFollowUpDate":null,"totalLocationsEU":null,"locationsGermany":null,"locationsAustria":null,"locationsSwitzerland":null,"locationsRestEU":null,"expansionPlanned":null,"primaryFinancing":null,"painPoints":[],"contactsCount":0,"createdAt":"2025-08-15T22:31:24.921743","createdBy":null,"updatedAt":null,"updatedBy":null,"isDeleted":false,"deletedAt":null,"deletedBy":null},{"id":"56267ea4-225a-4066-9a7a-46e06920c62a","customerNumber":"INA3dd0","companyName":"[TEST-3dd001d3] Inactive Restaurant","tradingName":null,"legalForm":null,"customerType":"NEUKUNDE","industry":"RESTAURANT","classification":null,"parentCustomerId":null,"hierarchyType":null,"childCustomerIds":[],"hasChildren":false,"status":"INAKTIV","lifecycleStage":null,"partnerStatus":null,"expectedAnnualVolume":null,"actualAnnualVolume":null,"paymentTerms":null,"creditLimit":null,"deliveryCondition":null,"riskScore":0,"atRisk":false,"lastContactDate":null,"nextFollowUpDate":null,"totalLocationsEU":null,"locationsGermany":null,"locationsAustria":null,"locationsSwitzerland":null,"locationsRestEU":null,"expansionPlanned":null,"primaryFinancing":null,"painPoints":[],"contactsCount":0,"createdAt":"2025-08-15T22:31:24.922264","createdBy":null,"updatedAt":null,"updatedBy":null,"isDeleted":false,"deletedAt":null,"deletedBy":null}],"page":0,"size":20,"totalElements":292,"totalPages":15,"first":true,"last":false}